task5
…
$ traffic_density    <dbl> 4, 2, 4, 4, 3, 2, 2, 3, 2, 5, 5, 3, 4, 5, 3, 5, 1, …
$ near_airport       <dbl> 0, 0, 0, 0, 0, 0, 0, 0, 0, 0, 0, 0, 0, 0, 0, 0, 0, …
$ near_highway       <dbl> 0, 0, 1, 0, 0, 0, 0, 1, 0, 0, 0, 0, 1, 0, 0, 1, 0, …
$ near_construction  <dbl> 0, 0, 0, 0, 1, 0, 0, 1, 1, 1, 0, 0, 0, 0, 1, 0, 1, …
$ population_density <dbl> 28384, 24206, 1894, 2265, 23807, 17746, 24548, 1096…
$ park_proximity     <dbl> 0, 0, 1, 1, 1, 0, 1, 1, 1, 0, 0, 0, 1, 0, 0, 0, 1, …
$ industrial_zone    <dbl> 0, 0, 0, 0, 0, 0, 0, 0, 1, 0, 0, 1, 1, 0, 0, 0, 0, …
$ vehicle_count      <dbl> 24, 15, 15, 24, 25, 15, 17, 26, 27, 24, 21, 14, 20,…
$ honking_events     <dbl> 1, 2, 2, 4, 2, 1, 2, 3, 4, 4, 2, 1, 2, 2, 1, 1, 4, …
$ public_event       <dbl> 0, 0, 0, 0, 0, 0, 0, 0, 0, 0, 0, 0, 0, 0, 0, 0, 0, …
$ holiday            <dbl> 0, 0, 0, 0, 0, 0, 0, 0, 1, 0, 0, 0, 1, 0, 1, 0, 0, …
$ school_zone        <dbl> 1, 0, 0, 1, 0, 0, 0, 1, 0, 0, 0, 0, 0, 0, 0, 0, 0, …
$ noise_complaints   <dbl> 1, 0, 0, 2, 0, 2, 0, 1, 1, 2, 1, 0, 1, 2, 0, 0, 1, …
$ sensor_id          <dbl> 31, 40, 41, 50, 8, 39, 8, 47, 31, 19, 36, 39, 32, 2…
# A tibble: 2,000 × 26
      id latitude longitude datetime            decibel_level  hour day_of_week
   <dbl>    <dbl>     <dbl> <dttm>                      <dbl> <dbl>       <dbl>
 1     1     40.6     -74.1 2023-04-01 18:50:00          78.3    18           5
 2     2     40.9     -74.1 2023-03-18 04:12:00          68.1     4           5
 3     3     40.8     -73.7 2023-12-03 05:43:00          58.9     5           6
 4     4     40.7     -74.1 2023-06-20 00:44:00          69.6     0           1
 5     5     40.6     -74.1 2023-12-28 12:06:00          60.4    12           3
 6     6     40.6     -73.8 2023-02-13 17:40:00          58.1    17           0
 7     7     40.5     -74.0 2023-08-04 06:02:00          53.5     6           4
 8     8     40.8     -73.8 2023-07-06 18:59:00          47.5    18           3
 9     9     40.7     -74.2 2023-09-22 03:53:00          61.1     3           4
10    10     40.8     -74.0 2023-07-25 23:32:00          66.6    23           1
# ℹ 1,990 more rows
# ℹ 19 more variables: is_weekend <dbl>, temperature_c <dbl>,
#   `humidity_%` <dbl>, wind_speed_kmh <dbl>, precipitation_mm <dbl>,
#   traffic_density <dbl>, near_airport <dbl>, near_highway <dbl>,
#   near_construction <dbl>, population_density <dbl>, park_proximity <dbl>,
#   industrial_zone <dbl>, vehicle_count <dbl>, honking_events <dbl>,
#   public_event <dbl>, holiday <dbl>, school_zone <dbl>, …
…
